{
    "searchConfiguration": {
        "minimalRate": 3.5,
        "minimalRatesCount": 1,
        "url": "http://www.skapiec.pl/site/cat/8/filtr/_0_0_10612_0_0_0_13949_30686_0_0"
    },
    "resultConfiguration": {
        "file": "dysk.html"
    }
}